test_run_dir/FFT_should_perform_basic_FFT_operation/FFT.vcd
$date
2025-01-20T10:47+0000
$end
$version
0.2
$end
$comment

$end
$timescale 1ns  $end
$scope module FFT $end
 $var wire 32 ! dataRegs_6_real $end
 $var wire 32 " twiddleFactors_twiddle_3_real $end
 $var wire 32 # dataRegs_4_imag $end
 $var wire 32 $ dataRegs_7_real $end
 $var wire 32 % io_in_2_imag $end
 $var wire 32 & io_in_5_real $end
 $var wire 32 ' twiddleFactors_1_imag $end
 $var wire 8 ( secondIndex $end
 $var wire 32 ) io_in_0_real $end
 $var wire 32 * io_out_6_imag $end
 $var wire 32 + dataRegs_1_real $end
 $var wire 32 , twiddleFactors_3_real $end
 $var wire 32 - io_out_1_imag $end
 $var wire 32 . io_out_4_real $end
 $var wire 32 / dataRegs_5_imag $end
 $var wire 32 0 io_in_3_imag $end
 $var wire 32 1 twiddleFactors_twiddle_1_imag $end
 $var wire 32 2 io_in_6_real $end
 $var wire 32 3 io_out_7_imag $end
 $var wire 32 4 twiddleFactors_2_imag $end
 $var wire 32 5 dataRegs_2_real $end
 $var wire 32 6 twiddleFactors_twiddle_real $end
 $var wire 32 7 io_in_1_real $end
 $var wire 3 8 groupCounter $end
 $var wire 32 9 dataRegs_0_imag $end
 $var wire 64 : product_tempImag $end
 $var wire 32 ; out0_imag $end
 $var wire 2 < state $end
 $var wire 32 = io_out_5_real $end
 $var wire 32 > io_out_2_imag $end
 $var wire 32 ? dataRegs_6_imag $end
 $var wire 32 @ product_imag $end
 $var wire 32 A io_in_4_imag $end
 $var wire 1 B io_start $end
 $var wire 32 C io_in_7_real $end
 $var wire 32 D io_out_0_real $end
 $var wire 32 E twiddleFactors_twiddle_2_imag $end
 $var wire 4 F stageSize $end
 $var wire 32 G io_in_2_real $end
 $var wire 32 H dataRegs_3_real $end
 $var wire 32 I dataRegs_1_imag $end
 $var wire 32 J twiddleFactors_3_imag $end
 $var wire 32 K io_out_3_imag $end
 $var wire 32 L out1_imag $end
 $var wire 32 M twiddleFactors_0_real $end
 $var wire 32 N io_out_6_real $end
 $var wire 32 O twiddleFactors_twiddle_3_imag $end
 $var wire 1 P clock $end
 $var wire 32 Q dataRegs_7_imag $end
 $var wire 32 R io_in_5_imag $end
 $var wire 32 S io_out_1_real $end
 $var wire 32 T dataRegs_2_imag $end
 $var wire 8 U firstIndex $end
 $var wire 32 V twiddleFactors_twiddle_imag $end
 $var wire 8 W groupOffset $end
 $var wire 32 X io_in_0_imag $end
 $var wire 32 Y dataRegs_4_real $end
 $var wire 32 Z io_in_3_real $end
 $var wire 32 [ twiddleFactors_twiddle_1_real $end
 $var wire 1 \ io_done $end
 $var wire 32 ] io_out_7_real $end
 $var wire 5 ^ groupSize $end
 $var wire 32 _ twiddleFactors_1_real $end
 $var wire 32 ` io_out_4_imag $end
 $var wire 32 a io_in_6_imag $end
 $var wire 6 b twiddleIndex $end
 $var wire 64 c product_tempReal $end
 $var wire 32 d io_out_2_real $end
 $var wire 32 e out0_real $end
 $var wire 32 f io_in_4_real $end
 $var wire 32 g dataRegs_3_imag $end
 $var wire 32 h product_real $end
 $var wire 11 i product_roundingFactor $end
 $var wire 32 j dataRegs_5_real $end
 $var wire 2 k stageCounter $end
 $var wire 32 l twiddleFactors_twiddle_2_real $end
 $var wire 32 m io_in_1_imag $end
 $var wire 32 n twiddleFactors_2_real $end
 $var wire 32 o twiddleFactors_0_imag $end
 $var wire 1 p reset $end
 $var wire 2 q butterflyCounter $end
 $var wire 32 r io_out_5_imag $end
 $var wire 32 s dataRegs_0_real $end
 $var wire 32 t io_out_0_imag $end
 $var wire 32 u io_out_3_real $end
 $var wire 32 v io_in_7_imag $end
 $var wire 32 w out1_real $end
$upscope $end
$enddefinitions $end
$dumpvars
b00000000000000000000000000000000 n
b00000000000000000000000000000000 Y
b00000000000000000000000000000000 D
b00000000000000000000000000000000 '
b00000000000000000000000000000000 [
b00000000000000000000000000000000 S
b00000000000000000000000000000000 >
b00000000000000000000000000000000 !
b00000000000000000000000000000000 r
b00000000000000000000000000000000 j
b00000000000000000000000000000000 #
b0000000000000000000000000000000000000000000000000000000000000000 c
b00000000000000000000000000000000 l
b00000000000000000000000000000000 O
b00000000000000000000000000000000 2
b00000000000000000000000000000000 f
b00000000000000000000000000000000 Q
0P
b00000000000000000000000000000000 I
b00 <
b00000000000000000000000000000000 4
b00000000 (
b00000000000000000000000000000000 h
b00000000000000000000000000000000 `
b00000000000000000000000000000000 K
b00000000000000000000000000000000 6
b00000000000000000000000000000000 .
b00000000000000000000000000000000 w
b00000000000000000000000000000000 M
b00000000000000000000000000000000 E
b00000000000000000000000000000000 0
b00000000000000000000000000000000 d
b00000000000000000000000000000000 G
b00000000000000000000000000000000 *
b00000000000000000000000000000000 s
b00000000000000000000000000000000 A
b00000000000000000000000000000000 ,
b00000000000000000000000000000000 $
b00000000000000000000000000000000 u
b0000000000000000000000000000000000000000000000000000000000000000 :
b00000000000000000000000000000000 X
b00000000000000000000000000000000 C
0B
b00000000000000000000000000000000 ;
b00000000000000000000000000000000 &
b00000000000000000000000000000000 o
b00000000000000000000000000000000 Z
b00000000000000000000000000000000 =
0p
b00 q
b00000000000000000000000000000000 T
b00000000000000000000000000000000 ?
b00000000000000000000000000000000 7
b00000000000000000000000000000000 "
b00000000000 i
b00000000000000000000000000000000 V
b00 k
b00000000000000000000000000000000 N
b00000000000000000000000000000000 9
b00000000000000000000000000000000 m
b00000000000000000000000000000000 e
b00000000000000000000000000000000 3
b00000000000000000000000000000000 g
b00000000000000000000000000000000 R
b00000 ^
b00000000000000000000000000000000 J
b00000000000000000000000000000000 5
b000 8
b000000 b
b00000000000000000000000000000000 a
b00000000000000000000000000000000 L
b00000000000000000000000000000000 /
b00000000 U
b0000 F
b00000000000000000000000000000000 1
b00000000 W
b00000000000000000000000000000000 )
0\
b00000000000000000000000000000000 ]
b00000000000000000000000000000000 H
b00000000000000000000000000000000 @
b00000000000000000000000000000000 +
b00000000000000000000000000000000 t
b00000000000000000000000000000000 _
b00000000000000000000000000000000 -
b00000000000000000000000000000000 %
b00000000000000000000000000000000 v
$end
#0
b11111111111111111111110000000000 4
b11111111111111111111110100101100 J
b11111111111111111111110100101100 '
b00000000000000000000010000000000 6
b11111111111111111111110000000000 E
b01000000000 i
1p
b00000000000000000000001011010100 [
b00000001 (
b00000000000000000000010000000000 M
b11111111111111111111110100101100 "
b11111111111111111111110100101100 1
b0001 F
b11111111111111111111110100101100 O
b00010 ^
b11111111111111111111110100101100 ,
b00000000000000000000001011010100 _
#1
1P
#6
b11111111111111111111111110110110 f
1B
b00000000000000000000001100111010 %
b00000000000000000000000101110111 X
b11111111111111111111110101101011 C
b11111111111111111111111101111110 R
b00000000000000000000000011000001 v
b00000000000000000000001101011011 &
b11111111111111111111111011110011 Z
b11111111111111111111111100011000 a
0p
b11111111111111111111111001111000 7
b00000000000000000000000111010010 )
b11111111111111111111111000110101 0
b00000000000000000000000101010011 G
b00000000000000000000001000000000 2
b11111111111111111111111000110111 m
b00000000000000000000001001000011 A
0P
#11
b00000000000000000000000011000001 3
b00000000000000000000000011000001 Q
b01 <
b11111111111111111111111000110101 g
b00000000000000000000000101010011 5
b11111111111111111111111001111000 h
b11111111111111111111111001111000 S
b11111111111111111111111000110101 K
b00000000000000000000001101000000 L
b00000000000000000000001101011011 j
b11111111111111111111111101111110 /
b1111111111111111111111111111111111111111111110011110000000000000 c
b00000000000000000000001000000000 N
b00000000000000000000000101010011 d
b00000000000000000000000001001010 e
b11111111111111111111111100011000 *
b11111111111111111111110101101011 ]
b11111111111111111111111011110011 H
b11111111111111111111111001111000 +
b11111111111111111111111000110111 I
b00000000000000000000000101110111 t
b11111111111111111111111011110011 u
b00000000000000000000001001000011 `
b11111111111111111111111000110111 -
b11111111111111111111111110110110 .
b11111111111111111111111110110110 Y
b00000000000000000000000111010010 D
b00000000000000000000001101011010 w
b00000000000000000000001101011011 =
b00000000000000000000001100111010 >
b00000000000000000000001000000000 !
b00000000000000000000001100111010 T
b11111111111111111111111100011000 ?
b11111111111111111111111101111110 r
b11111111111111111111111000110111 @
b00000000000000000000000111010010 s
b00000000000000000000001001000011 #
b00000000000000000000000101110111 9
b11111111111111111111110101101011 $
b1111111111111111111111111111111111111111111110001101110000000000 :
1P
b11111111111111111111111110101110 ;
#16
0B
0P
#21
b00000000000000000000001101000000 -
b00000000000000000000000001001010 D
b00000000000000000000001101011010 S
b11111111111111111111111011110011 h
b00000000000000000000001001100000 w
b00000011 (
b00000000000000000000010100000101 L
b1111111111111111111111111111111111111111111110111100110000000000 c
b00000010 U
b11111111111111111111111000110101 @
b00000000000000000000000001001010 s
b001 8
b00000000000000000000000001000110 e
b11111111111111111111111110101110 9
b00000010 W
b00000000000000000000001101011010 +
b1111111111111111111111111111111111111111111110001101010000000000 :
b00000000000000000000001101000000 I
1P
b11111111111111111111111110101110 t
b00000000000000000000000101101111 ;
#26
0P
#31
b00000000000000000000001001100000 u
b00000000000000000000010100000101 g
b00000000000000000000000001000110 5
b00000000000000000000001101011011 h
b11111111111111111111110001011011 w
b00000000000000000000010100000101 K
b00000101 (
b00000000000000000000001011000101 L
b00000000000000000000000101101111 >
b00000000000000000000000101101111 T
b0000000000000000000000000000000000000000000011010110110000000000 c
b00000100 U
b00000000000000000000000001000110 d
b11111111111111111111111101111110 @
b010 8
b00000000000000000000001100010001 e
b00000000000000000000001001100000 H
b00000100 W
b1111111111111111111111111111111111111111111111011111100000000000 :
1P
b00000000000000000000000111000001 ;
#36
0P
#41
b00000000000000000000000111000001 `
b00000000000000000000001100010001 .
b00000000000000000000001100010001 Y
b11111111111111111111110101101011 h
b00000000000000000000010010010101 w
b11111111111111111111110001011011 =
b00000111 (
b11111111111111111111111001010111 L
b11111111111111111111110001011011 j
b00000000000000000000001011000101 /
b1111111111111111111111111111111111111111111101011010110000000000 c
b00000000000000000000001011000101 r
b00000110 U
b00000000000000000000000011000001 @
b011 8
b00000000000000000000000111000001 #
b11111111111111111111111101101011 e
b00000110 W
b0000000000000000000000000000000000000000000000110000010000000000 :
1P
b11111111111111111111111111011001 ;
#46
0P
#51
b11111111111111111111111001010111 3
b11111111111111111111111001010111 Q
b00000000000000000000000001000110 h
b00000000000000000000000000000100 w
b00000010 (
b11111111111111111111111000111111 L
b11111111111111111111111101101011 !
b11111111111111111111111111011001 ?
b11111111111111111111111101101011 N
b0000000000000000000000000000000000000000000000010001100000000000 c
b0010 F
b00000000 U
b00000000000000000000000101101111 @
b000 8
b01 k
b00000000000000000000000010010000 e
b11111111111111111111111111011001 *
b00000000000000000000010010010101 ]
b00000000000000000000010010010101 $
b00000000 W
b00100 ^
b0000000000000000000000000000000000000000000001011011110000000000 :
1P
b00000000000000000000000100011101 ;
#56
0P
#61
b00000000000000000000000000000100 5
b00000000000000000000000010010000 D
b00000000000000000000010100000101 h
b11111111111111111111111001010101 w
b00000011 (
b00000000000000000000010110100000 L
b11111111111111111111111000111111 >
b01 q
b000010 b
b11111111111111111111111000111111 T
b0000000000000000000000000000000000000000000101000001010000000000 c
b00000001 U
b00000000000000000000000000000100 d
b00000000000000000000000010010000 s
b11111111111111111111110110100000 @
b00000000000000000000100001011111 e
b00000000000000000000000100011101 9
b1111111111111111111111111111111111111111111101101000000000000000 :
b00000000000000000000000100011101 t
1P
b00000000000000000000000011100000 ;
#66
0P
#71
b11111111111111111111111001010101 u
b00000000000000000000000011100000 -
b00000000000000000000010110100000 g
b11111111111111111111111101101011 h
b00000000000000000000100001011111 S
b00000000000000000000001110100110 w
b00000000000000000000010110100000 K
b00000110 (
b00000000000000000000000111101000 L
b000000 b
b00 q
b1111111111111111111111111111111111111111111111011010110000000000 c
b00000100 U
b11111111111111111111111111011001 @
b001 8
b00000000000000000000001001111100 e
b11111111111111111111111001010101 H
b00000100 W
b00000000000000000000100001011111 +
b1111111111111111111111111111111111111111111111110110010000000000 :
b00000000000000000000000011100000 I
1P
b00000000000000000000000110011010 ;
#76
0P
#81
b00000000000000000000000110011010 `
b00000000000000000000001001111100 .
b00000000000000000000001001111100 Y
b11111111111111111111111001010111 h
b11111111111111111111111000000100 w
b00000111 (
b00000000000000000000011101011010 L
b000010 b
b01 q
b00000000000000000000001110100110 !
b00000000000000000000000111101000 ?
b00000000000000000000001110100110 N
b1111111111111111111111111111111111111111111110010101110000000000 c
b00000101 U
b11111111111111111111101101101011 @
b00000000000000000000000110011010 #
b11111111111111111111101010110010 e
b00000000000000000000000111101000 *
b1111111111111111111111111111111111111111111011011010110000000000 :
1P
b11111111111111111111111000110000 ;
#86
0P
#91
b00000000000000000000011101011010 3
b00000000000000000000011101011010 Q
b00000000000000000000001001111100 h
b11111111111111111111111000010100 w
b11111111111111111111101010110010 =
b00000100 (
b11111111111111111111111110000011 L
b11111111111111111111101010110010 j
b11111111111111111111111000110000 /
b000000 b
b00 q
b0000000000000000000000000000000000000000000010011111000000000000 c
b11111111111111111111111000110000 r
b0100 F
b00000000 U
b00000000000000000000000110011010 @
b000 8
b10 k
b00000000000000000000001100001100 e
b11111111111111111111111000000100 ]
b11111111111111111111111000000100 $
b00000000 W
b01000 ^
b0000000000000000000000000000000000000000000001100110100000000000 :
1P
b00000000000000000000001010110111 ;
#96
0P
#101
b11111111111111111111111110000011 `
b11111111111111111111111000010100 .
b11111111111111111111111000010100 Y
b00000000000000000000001100001100 D
b11111111111111111111101011111000 h
b00000000000000000000110101100111 w
b00000101 (
b11111111111111111111111001101000 L
b000001 b
b01 q
b1111111111111111111111111111111111111111111010111101111100101000 c
b00000001 U
b00000000000000000000001001111000 @
b00000000000000000000001100001100 s
b11111111111111111111111110000011 #
b00000000000000000000001101010111 e
b00000000000000000000001010110111 9
b0000000000000000000000000000000000000000000010011110000001011000 :
b00000000000000000000001010110111 t
1P
b00000000000000000000001101011000 ;
#106
0P
#111
b00000000000000000000001101011000 -
b00000000000000000000000111101000 h
b00000000000000000000001101010111 S
b11111111111111111111111000011100 w
b00000000000000000000110101100111 =
b00000110 (
b00000000000000000000000111100101 L
b00000000000000000000110101100111 j
b11111111111111111111111001101000 /
b000010 b
b10 q
b0000000000000000000000000000000000000000000001111010000000000000 c
b11111111111111111111111001101000 r
b00000010 U
b11111111111111111111110001011010 @
b00000000000000000000000111101100 e
b00000000000000000000001101010111 +
b1111111111111111111111111111111111111111111100010110100000000000 :
b00000000000000000000001101011000 I
1P
b11111111111111111111101010011001 ;
#116
0P
#121
b00000000000000000000000111101100 5
b00000000000000000000011010011010 h
b11111111111111111111011110111011 w
b00000111 (
b00000000000000000000100101101011 L
b11111111111111111111101010011001 >
b11 q
b000011 b
b11111111111111111111111000011100 !
b11111111111111111111101010011001 T
b00000000000000000000000111100101 ?
b11111111111111111111111000011100 N
b0000000000000000000000000000000000000000000110100110011100111000 c
b00000011 U
b00000000000000000000000111101100 d
b11111111111111111111110000110101 @
b00000000000000000000010011101111 e
b00000000000000000000000111100101 *
b1111111111111111111111111111111111111111111100001101001000101000 :
1P
b00000000000000000000000111010101 ;
#126
0P
#131
b00000000000000000000100101101011 3
b00000000000000000000100101101011 Q
b00000000000000000000010011101111 u
b00000000000000000000000111010101 g
b00000000000000000000001100001100 h
b00000000000000000000000000000000 w
b00000000000000000000000111010101 K
b00001000 (
b00000000000000000000000000000000 L
b000000 b
b00 q
b0000000000000000000000000000000000000000000011000011000000000000 c
b1000 F
b00000000 U
b00000000000000000000001010110111 @
b11 k
b00000000000000000000011000011000 e
b11111111111111111111011110111011 ]
b11111111111111111111011110111011 $
b00000000000000000000010011101111 H
b10000 ^
b0000000000000000000000000000000000000000000010101101110000000000 :
1P
b00000000000000000000010101101110 ;
#136
0P
#141
b10 <
1P
1\
