test_run_dir/FFT_should_perform_basic_FFT_operation_with_improved_accuracy/FFT.vcd
$date
2025-01-20T10:46+0000
$end
$version
0.2
$end
$comment

$end
$timescale 1ns  $end
$scope module FFT $end
 $var wire 32 ! dataRegs_6_real $end
 $var wire 32 " twiddleFactors_twiddle_3_real $end
 $var wire 32 # dataRegs_4_imag $end
 $var wire 32 $ dataRegs_7_real $end
 $var wire 32 % io_in_2_imag $end
 $var wire 32 & io_in_5_real $end
 $var wire 32 ' twiddleFactors_1_imag $end
 $var wire 8 ( secondIndex $end
 $var wire 32 ) io_in_0_real $end
 $var wire 32 * io_out_6_imag $end
 $var wire 32 + dataRegs_1_real $end
 $var wire 32 , twiddleFactors_3_real $end
 $var wire 32 - io_out_1_imag $end
 $var wire 32 . io_out_4_real $end
 $var wire 32 / dataRegs_5_imag $end
 $var wire 32 0 io_in_3_imag $end
 $var wire 32 1 twiddleFactors_twiddle_1_imag $end
 $var wire 32 2 io_in_6_real $end
 $var wire 32 3 io_out_7_imag $end
 $var wire 32 4 twiddleFactors_2_imag $end
 $var wire 32 5 dataRegs_2_real $end
 $var wire 32 6 twiddleFactors_twiddle_real $end
 $var wire 32 7 io_in_1_real $end
 $var wire 3 8 groupCounter $end
 $var wire 32 9 dataRegs_0_imag $end
 $var wire 64 : product_tempImag $end
 $var wire 32 ; out0_imag $end
 $var wire 2 < state $end
 $var wire 32 = io_out_5_real $end
 $var wire 32 > io_out_2_imag $end
 $var wire 32 ? dataRegs_6_imag $end
 $var wire 32 @ product_imag $end
 $var wire 32 A io_in_4_imag $end
 $var wire 1 B io_start $end
 $var wire 32 C io_in_7_real $end
 $var wire 32 D io_out_0_real $end
 $var wire 32 E twiddleFactors_twiddle_2_imag $end
 $var wire 4 F stageSize $end
 $var wire 32 G io_in_2_real $end
 $var wire 32 H dataRegs_3_real $end
 $var wire 32 I dataRegs_1_imag $end
 $var wire 32 J twiddleFactors_3_imag $end
 $var wire 32 K io_out_3_imag $end
 $var wire 32 L out1_imag $end
 $var wire 32 M twiddleFactors_0_real $end
 $var wire 32 N io_out_6_real $end
 $var wire 32 O twiddleFactors_twiddle_3_imag $end
 $var wire 1 P clock $end
 $var wire 32 Q dataRegs_7_imag $end
 $var wire 32 R io_in_5_imag $end
 $var wire 32 S io_out_1_real $end
 $var wire 32 T dataRegs_2_imag $end
 $var wire 8 U firstIndex $end
 $var wire 32 V twiddleFactors_twiddle_imag $end
 $var wire 8 W groupOffset $end
 $var wire 32 X io_in_0_imag $end
 $var wire 32 Y dataRegs_4_real $end
 $var wire 32 Z io_in_3_real $end
 $var wire 32 [ twiddleFactors_twiddle_1_real $end
 $var wire 1 \ io_done $end
 $var wire 32 ] io_out_7_real $end
 $var wire 5 ^ groupSize $end
 $var wire 32 _ twiddleFactors_1_real $end
 $var wire 32 ` io_out_4_imag $end
 $var wire 32 a io_in_6_imag $end
 $var wire 6 b twiddleIndex $end
 $var wire 64 c product_tempReal $end
 $var wire 32 d io_out_2_real $end
 $var wire 32 e out0_real $end
 $var wire 32 f io_in_4_real $end
 $var wire 32 g dataRegs_3_imag $end
 $var wire 32 h product_real $end
 $var wire 11 i product_roundingFactor $end
 $var wire 32 j dataRegs_5_real $end
 $var wire 2 k stageCounter $end
 $var wire 32 l twiddleFactors_twiddle_2_real $end
 $var wire 32 m io_in_1_imag $end
 $var wire 32 n twiddleFactors_2_real $end
 $var wire 32 o twiddleFactors_0_imag $end
 $var wire 1 p reset $end
 $var wire 2 q butterflyCounter $end
 $var wire 32 r io_out_5_imag $end
 $var wire 32 s dataRegs_0_real $end
 $var wire 32 t io_out_0_imag $end
 $var wire 32 u io_out_3_real $end
 $var wire 32 v io_in_7_imag $end
 $var wire 32 w out1_real $end
$upscope $end
$enddefinitions $end
$dumpvars
b00000000000000000000000000000000 n
b00000000000000000000000000000000 Y
b00000000000000000000000000000000 D
b00000000000000000000000000000000 '
b00000000000000000000000000000000 [
b00000000000000000000000000000000 S
b00000000000000000000000000000000 >
b00000000000000000000000000000000 !
b00000000000000000000000000000000 r
b00000000000000000000000000000000 j
b00000000000000000000000000000000 #
b0000000000000000000000000000000000000000000000000000000000000000 c
b00000000000000000000000000000000 l
b00000000000000000000000000000000 O
b00000000000000000000000000000000 2
b00000000000000000000000000000000 f
b00000000000000000000000000000000 Q
0P
b00000000000000000000000000000000 I
b00 <
b00000000000000000000000000000000 4
b00000000 (
b00000000000000000000000000000000 h
b00000000000000000000000000000000 `
b00000000000000000000000000000000 K
b00000000000000000000000000000000 6
b00000000000000000000000000000000 .
b00000000000000000000000000000000 w
b00000000000000000000000000000000 M
b00000000000000000000000000000000 E
b00000000000000000000000000000000 0
b00000000000000000000000000000000 d
b00000000000000000000000000000000 G
b00000000000000000000000000000000 *
b00000000000000000000000000000000 s
b00000000000000000000000000000000 A
b00000000000000000000000000000000 ,
b00000000000000000000000000000000 $
b00000000000000000000000000000000 u
b0000000000000000000000000000000000000000000000000000000000000000 :
b00000000000000000000000000000000 X
b00000000000000000000000000000000 C
0B
b00000000000000000000000000000000 ;
b00000000000000000000000000000000 &
b00000000000000000000000000000000 o
b00000000000000000000000000000000 Z
b00000000000000000000000000000000 =
0p
b00 q
b00000000000000000000000000000000 T
b00000000000000000000000000000000 ?
b00000000000000000000000000000000 7
b00000000000000000000000000000000 "
b00000000000 i
b00000000000000000000000000000000 V
b00 k
b00000000000000000000000000000000 N
b00000000000000000000000000000000 9
b00000000000000000000000000000000 m
b00000000000000000000000000000000 e
b00000000000000000000000000000000 3
b00000000000000000000000000000000 g
b00000000000000000000000000000000 R
b00000 ^
b00000000000000000000000000000000 J
b00000000000000000000000000000000 5
b000 8
b000000 b
b00000000000000000000000000000000 a
b00000000000000000000000000000000 L
b00000000000000000000000000000000 /
b00000000 U
b0000 F
b00000000000000000000000000000000 1
b00000000 W
b00000000000000000000000000000000 )
0\
b00000000000000000000000000000000 ]
b00000000000000000000000000000000 H
b00000000000000000000000000000000 @
b00000000000000000000000000000000 +
b00000000000000000000000000000000 t
b00000000000000000000000000000000 _
b00000000000000000000000000000000 -
b00000000000000000000000000000000 %
b00000000000000000000000000000000 v
$end
#0
b11111111111111111111110000000000 4
b11111111111111111111110100101100 J
b11111111111111111111110100101100 '
b00000000000000000000010000000000 6
b11111111111111111111110000000000 E
b01000000000 i
1p
b00000000000000000000001011010100 [
b00000001 (
b00000000000000000000010000000000 M
b11111111111111111111110100101100 "
b11111111111111111111110100101100 1
b0001 F
b11111111111111111111110100101100 O
b00010 ^
b11111111111111111111110100101100 ,
b00000000000000000000001011010100 _
#1
1P
#6
b11111111111111111111111000000000 f
1B
b00000000000000000000001000000000 %
b00000000000000000000000101101010 C
b11111111111111111111111010010110 R
b11111111111111111111111010010110 v
b11111111111111111111111010010110 &
b11111111111111111111111010010110 Z
b11111111111111111111111000000000 a
0p
b00000000000000000000000101101010 7
b00000000000000000000001000000000 )
b00000000000000000000000101101010 0
b00000000000000000000000101101010 m
0P
#11
b11111111111111111111111010010110 3
b11111111111111111111111010010110 Q
b01 <
b00000000000000000000000101101010 g
b00000000000000000000000101101010 h
b00000000000000000000000101101010 S
b00000000000000000000000101101010 K
b11111111111111111111111010010110 L
b11111111111111111111111010010110 j
b11111111111111111111111010010110 /
b0000000000000000000000000000000000000000000001011010100000000000 c
b00000000000000000000001101101010 e
b11111111111111111111111000000000 *
b00000000000000000000000101101010 ]
b11111111111111111111111010010110 H
b00000000000000000000000101101010 +
b00000000000000000000000101101010 I
b11111111111111111111111010010110 u
b00000000000000000000000101101010 -
b11111111111111111111111000000000 .
b11111111111111111111111000000000 Y
b00000000000000000000001000000000 D
b00000000000000000000000010010110 w
b11111111111111111111111010010110 =
b00000000000000000000001000000000 >
b00000000000000000000001000000000 T
b11111111111111111111111000000000 ?
b11111111111111111111111010010110 r
b00000000000000000000000101101010 @
b00000000000000000000001000000000 s
b00000000000000000000000101101010 $
b0000000000000000000000000000000000000000000001011010100000000000 :
1P
b00000000000000000000000101101010 ;
#16
0B
0P
#21
b11111111111111111111111010010110 -
b00000000000000000000001101101010 D
b00000000000000000000000010010110 S
b11111111111111111111111010010110 h
b00000000000000000000000101101010 w
b00000011 (
b00000000000000000000000010010110 L
b1111111111111111111111111111111111111111111110100101100000000000 c
b00000010 U
b00000000000000000000001101101010 s
b001 8
b11111111111111111111111010010110 e
b00000000000000000000000101101010 9
b00000010 W
b00000000000000000000000010010110 +
b11111111111111111111111010010110 I
1P
b00000000000000000000000101101010 t
b00000000000000000000001101101010 ;
#26
0P
#31
b00000000000000000000000101101010 u
b00000000000000000000000010010110 g
b11111111111111111111111010010110 5
b11111111111111111111111101101010 w
b00000000000000000000000010010110 K
b00000101 (
b00000000000000000000000101101010 L
b00000000000000000000001101101010 >
b00000000000000000000001101101010 T
b00000100 U
b11111111111111111111111010010110 d
b11111111111111111111111010010110 @
b010 8
b11111111111111111111110010010110 e
b00000000000000000000000101101010 H
b00000100 W
b1111111111111111111111111111111111111111111110100101100000000000 :
1P
b11111111111111111111111010010110 ;
#36
0P
#41
b11111111111111111111111010010110 `
b11111111111111111111110010010110 .
b11111111111111111111110010010110 Y
b00000000000000000000000101101010 h
b11111111111111111111111010010110 w
b11111111111111111111111101101010 =
b00000111 (
b11111111111111111111111101101010 L
b11111111111111111111111101101010 j
b00000000000000000000000101101010 /
b0000000000000000000000000000000000000000000001011010100000000000 c
b00000000000000000000000101101010 r
b00000110 U
b011 8
b11111111111111111111111010010110 #
b00000000000000000000000101101010 e
b00000110 W
1P
b11111111111111111111110010010110 ;
#46
0P
#51
b11111111111111111111111101101010 3
b11111111111111111111111101101010 Q
b11111111111111111111111010010110 h
b00000000000000000000010011010100 w
b00000010 (
b11111111111111111111111000000000 L
b00000000000000000000000101101010 !
b11111111111111111111110010010110 ?
b00000000000000000000000101101010 N
b1111111111111111111111111111111111111111111110100101100000000000 c
b0010 F
b00000000 U
b00000000000000000000001101101010 @
b000 8
b01 k
b00000000000000000000001000000000 e
b11111111111111111111110010010110 *
b11111111111111111111111010010110 ]
b11111111111111111111111010010110 $
b00000000 W
b00100 ^
b0000000000000000000000000000000000000000000011011010100000000000 :
1P
b00000000000000000000010011010100 ;
#56
0P
#61
b00000000000000000000010011010100 5
b00000000000000000000001000000000 D
b00000000000000000000000010010110 h
b00000000000000000000000000000000 w
b00000011 (
b00000000000000000000000000000000 L
b11111111111111111111111000000000 >
b01 q
b000010 b
b11111111111111111111111000000000 T
b0000000000000000000000000000000000000000000000100101100000000000 c
b00000001 U
b00000000000000000000010011010100 d
b00000000000000000000001000000000 s
b11111111111111111111111010010110 @
b00000000000000000000000100101100 e
b00000000000000000000010011010100 9
b1111111111111111111111111111111111111111111110100101100000000000 :
b00000000000000000000010011010100 t
1P
b11111111111111111111110100101100 ;
#66
0P
#71
b00000000000000000000000000000000 u
b11111111111111111111110100101100 -
b00000000000000000000000000000000 g
b00000000000000000000000101101010 h
b00000000000000000000000100101100 S
b11111111111111111111101100101100 w
b00000000000000000000000000000000 K
b00000110 (
b00000000000000000000001000000000 L
b000000 b
b00 q
b0000000000000000000000000000000000000000000001011010100000000000 c
b00000100 U
b11111111111111111111110010010110 @
b001 8
b11111111111111111111111000000000 e
b00000000000000000000000000000000 H
b00000100 W
b00000000000000000000000100101100 +
b1111111111111111111111111111111111111111111100100101100000000000 :
b11111111111111111111110100101100 I
1P
b11111111111111111111101100101100 ;
#76
0P
#81
b11111111111111111111101100101100 `
b11111111111111111111111000000000 .
b11111111111111111111111000000000 Y
b11111111111111111111111101101010 h
b00000000000000000000000000000000 w
b00000111 (
b00000000000000000000000000000000 L
b000010 b
b01 q
b11111111111111111111101100101100 !
b00000000000000000000001000000000 ?
b11111111111111111111101100101100 N
b1111111111111111111111111111111111111111111111011010100000000000 c
b00000101 U
b00000000000000000000000101101010 @
b11111111111111111111101100101100 #
b11111111111111111111111011010100 e
b00000000000000000000001000000000 *
b0000000000000000000000000000000000000000000001011010100000000000 :
1P
b00000000000000000000001011010100 ;
#86
0P
#91
b00000000000000000000000000000000 3
b00000000000000000000000000000000 Q
b11111111111111111111111000000000 h
b00000000000000000000010000000000 w
b11111111111111111111111011010100 =
b00000100 (
b00000000000000000000100110101000 L
b11111111111111111111111011010100 j
b00000000000000000000001011010100 /
b000000 b
b00 q
b1111111111111111111111111111111111111111111110000000000000000000 c
b00000000000000000000001011010100 r
b0100 F
b00000000 U
b11111111111111111111101100101100 @
b000 8
b10 k
b00000000000000000000000000000000 e
b00000000000000000000000000000000 ]
b00000000000000000000000000000000 $
b00000000 W
b01000 ^
b1111111111111111111111111111111111111111111011001011000000000000 :
1P
b00000000000000000000000000000000 ;
#96
0P
#101
b00000000000000000000100110101000 `
b00000000000000000000010000000000 .
b00000000000000000000010000000000 Y
b00000000000000000000000000000000 D
b00000000000000000000000100101100 h
b00000000000000000000000000000000 w
b00000101 (
b11111111111111111111101001011000 L
b000001 b
b01 q
b0000000000000000000000000000000000000000000001001010111100100000 c
b00000001 U
b00000000000000000000001011010100 @
b00000000000000000000000000000000 s
b00000000000000000000100110101000 #
b00000000000000000000001001011000 e
b00000000000000000000000000000000 9
b0000000000000000000000000000000000000000000010110101000000000000 :
b00000000000000000000000000000000 t
1P
#106
0P
#111
b00000000000000000000000000000000 -
b00000000000000000000001000000000 h
b00000000000000000000001001011000 S
b00000000000000000000001011010100 w
b00000000000000000000000000000000 =
b00000110 (
b11111111111111111111100100101100 L
b00000000000000000000000000000000 j
b11111111111111111111101001011000 /
b000010 b
b10 q
b0000000000000000000000000000000000000000000010000000000000000000 c
b11111111111111111111101001011000 r
b00000010 U
b00000000000000000000010011010100 @
b00000000000000000000011011010100 e
b00000000000000000000001001011000 +
b0000000000000000000000000000000000000000000100110101000000000000 :
b00000000000000000000000000000000 I
1P
b00000000000000000000001011010100 ;
#116
0P
#121
b00000000000000000000011011010100 5
b00000000000000000000000000000000 h
b00000000000000000000000000000000 w
b00000111 (
b00000000000000000000000000000000 L
b00000000000000000000001011010100 >
b11 q
b000011 b
b00000000000000000000001011010100 !
b00000000000000000000001011010100 T
b11111111111111111111100100101100 ?
b00000000000000000000001011010100 N
b0000000000000000000000000000000000000000000000000000000000000000 c
b00000011 U
b00000000000000000000011011010100 d
b00000000000000000000000000000000 @
b00000000000000000000000000000000 e
b11111111111111111111100100101100 *
b0000000000000000000000000000000000000000000000000000000000000000 :
1P
b00000000000000000000000000000000 ;
#126
0P
#131
b1000 F
b00000000 U
b11 k
b10000 ^
b00001000 (
1P
b00 q
b000000 b
#136
0P
#141
b10 <
1P
1\
