test_run_dir/FFT_should_perform_basic_FFT_operation_with_improved_precision/FFT.vcd
$date
2025-01-20T10:51+0000
$end
$version
0.2
$end
$comment

$end
$timescale 1ns  $end
$scope module FFT $end
 $var wire 64 ! dataRegs_6_real $end
 $var wire 64 " twiddleFactors_twiddle_3_real $end
 $var wire 64 # dataRegs_4_imag $end
 $var wire 64 $ dataRegs_7_real $end
 $var wire 64 % io_in_2_imag $end
 $var wire 64 & io_in_5_real $end
 $var wire 64 ' twiddleFactors_1_imag $end
 $var wire 8 ( secondIndex $end
 $var wire 64 ) io_in_0_real $end
 $var wire 64 * io_out_6_imag $end
 $var wire 64 + dataRegs_1_real $end
 $var wire 64 , twiddleFactors_3_real $end
 $var wire 64 - io_out_1_imag $end
 $var wire 64 . io_out_4_real $end
 $var wire 64 / dataRegs_5_imag $end
 $var wire 64 0 io_in_3_imag $end
 $var wire 64 1 twiddleFactors_twiddle_1_imag $end
 $var wire 64 2 io_in_6_real $end
 $var wire 64 3 io_out_7_imag $end
 $var wire 64 4 twiddleFactors_2_imag $end
 $var wire 64 5 dataRegs_2_real $end
 $var wire 114 6 product_ac $end
 $var wire 64 7 twiddleFactors_twiddle_real $end
 $var wire 64 8 io_in_1_real $end
 $var wire 3 9 groupCounter $end
 $var wire 64 : dataRegs_0_imag $end
 $var wire 64 ; out0_imag $end
 $var wire 2 < state $end
 $var wire 64 = io_out_5_real $end
 $var wire 64 > io_out_2_imag $end
 $var wire 64 ? dataRegs_6_imag $end
 $var wire 64 @ product_imag $end
 $var wire 64 A io_in_4_imag $end
 $var wire 1 B io_start $end
 $var wire 15 C ROUNDING_FACTOR $end
 $var wire 64 D io_in_7_real $end
 $var wire 64 E io_out_0_real $end
 $var wire 64 F twiddleFactors_twiddle_2_imag $end
 $var wire 4 G stageSize $end
 $var wire 64 H io_in_2_real $end
 $var wire 64 I dataRegs_3_real $end
 $var wire 64 J dataRegs_1_imag $end
 $var wire 64 K twiddleFactors_3_imag $end
 $var wire 64 L io_out_3_imag $end
 $var wire 64 M out1_imag $end
 $var wire 64 N twiddleFactors_0_real $end
 $var wire 64 O io_out_6_real $end
 $var wire 64 P twiddleFactors_twiddle_3_imag $end
 $var wire 1 Q clock $end
 $var wire 64 R dataRegs_7_imag $end
 $var wire 64 S io_in_5_imag $end
 $var wire 64 T io_out_1_real $end
 $var wire 114 U product_bd $end
 $var wire 64 V dataRegs_2_imag $end
 $var wire 8 W firstIndex $end
 $var wire 64 X twiddleFactors_twiddle_imag $end
 $var wire 8 Y groupOffset $end
 $var wire 64 Z io_in_0_imag $end
 $var wire 64 [ dataRegs_4_real $end
 $var wire 64 \ io_in_3_real $end
 $var wire 64 ] twiddleFactors_twiddle_1_real $end
 $var wire 1 ^ io_done $end
 $var wire 64 _ io_out_7_real $end
 $var wire 5 ` groupSize $end
 $var wire 64 a twiddleFactors_1_real $end
 $var wire 64 b io_out_4_imag $end
 $var wire 64 c io_in_6_imag $end
 $var wire 6 d twiddleIndex $end
 $var wire 64 e io_out_2_real $end
 $var wire 64 f out0_real $end
 $var wire 64 g io_in_4_real $end
 $var wire 64 h dataRegs_3_imag $end
 $var wire 64 i product_real $end
 $var wire 64 j dataRegs_5_real $end
 $var wire 2 k stageCounter $end
 $var wire 64 l twiddleFactors_twiddle_2_real $end
 $var wire 64 m io_in_1_imag $end
 $var wire 64 n twiddleFactors_2_real $end
 $var wire 64 o twiddleFactors_0_imag $end
 $var wire 1 p reset $end
 $var wire 114 q product_ad $end
 $var wire 2 r butterflyCounter $end
 $var wire 64 s io_out_5_imag $end
 $var wire 64 t dataRegs_0_real $end
 $var wire 64 u io_out_0_imag $end
 $var wire 64 v io_out_3_real $end
 $var wire 114 w product_bc $end
 $var wire 64 x io_in_7_imag $end
 $var wire 64 y out1_real $end
$upscope $end
$enddefinitions $end
$dumpvars
b0000000000000000000000000000000000000000000000000000000000000000 o
b0000000000000000000000000000000000000000000000000000000000000000 g
b0000000000000000000000000000000000000000000000000000000000000000 R
b0000000000000000000000000000000000000000000000000000000000000000 5
b0000000000000000000000000000000000000000000000000000000000000000 i
b0000000000000000000000000000000000000000000000000000000000000000 L
b0000000000000000000000000000000000000000000000000000000000000000 7
b0000000000000000000000000000000000000000000000000000000000000000 /
b00 r
b0000000000000000000000000000000000000000000000000000000000000000 c
b0000000000000000000000000000000000000000000000000000000000000000 N
b0000000000000000000000000000000000000000000000000000000000000000 1
b0000000000000000000000000000000000000000000000000000000000000000 e
b0000000000000000000000000000000000000000000000000000000000000000 H
b0000000000000000000000000000000000000000000000000000000000000000 3
b0000000000000000000000000000000000000000000000000000000000000000 +
b00 <
b0000000000000000000000000000000000000000000000000000000000000000 _
b0000000000000000000000000000000000000000000000000000000000000000 J
b00000000 (
b0000000000000000000000000000000000000000000000000000000000000000 -
b0000000000000000000000000000000000000000000000000000000000000000 v
b0000000000000000000000000000000000000000000000000000000000000000 a
b000 9
b0000000000000000000000000000000000000000000000000000000000000000 D
b0000000000000000000000000000000000000000000000000000000000000000 '
b0000000000000000000000000000000000000000000000000000000000000000 x
b0000000000000000000000000000000000000000000000000000000000000000 [
b0000000000000000000000000000000000000000000000000000000000000000 F
b0000000000000000000000000000000000000000000000000000000000000000 >
b0000000000000000000000000000000000000000000000000000000000000000 )
b0000 G
b000000000000000000000000000000000000000000000000000000000000000000000000000000000000000000000000000000000000000000 6
b0000000000000000000000000000000000000000000000000000000000000000 ]
b0000000000000000000000000000000000000000000000000000000000000000 @
b000000000000000000000000000000000000000000000000000000000000000000000000000000000000000000000000000000000000000000 U
b0000000000000000000000000000000000000000000000000000000000000000 #
b0000000000000000000000000000000000000000000000000000000000000000 t
b0000000000000000000000000000000000000000000000000000000000000000 l
b0000000000000000000000000000000000000000000000000000000000000000 :
b0000000000000000000000000000000000000000000000000000000000000000 %
0B
b0000000000000000000000000000000000000000000000000000000000000000 n
b0000000000000000000000000000000000000000000000000000000000000000 4
b0000000000000000000000000000000000000000000000000000000000000000 h
b0000000000000000000000000000000000000000000000000000000000000000 S
b0000000000000000000000000000000000000000000000000000000000000000 K
0p
b0000000000000000000000000000000000000000000000000000000000000000 !
b0000000000000000000000000000000000000000000000000000000000000000 j
b00000 `
b0000000000000000000000000000000000000000000000000000000000000000 b
b0000000000000000000000000000000000000000000000000000000000000000 M
b0000000000000000000000000000000000000000000000000000000000000000 8
b000000000000000000000000000000000000000000000000000000000000000000000000000000000000000000000000000000000000000000 w
b0000000000000000000000000000000000000000000000000000000000000000 0
b00 k
b0000000000000000000000000000000000000000000000000000000000000000 y
b0000000000000000000000000000000000000000000000000000000000000000 O
b0000000000000000000000000000000000000000000000000000000000000000 2
b0000000000000000000000000000000000000000000000000000000000000000 f
b00000000 Y
b0000000000000000000000000000000000000000000000000000000000000000 I
b0000000000000000000000000000000000000000000000000000000000000000 ,
0Q
b0000000000000000000000000000000000000000000000000000000000000000 u
b000000000000000 C
b0000000000000000000000000000000000000000000000000000000000000000 .
b0000000000000000000000000000000000000000000000000000000000000000 &
b0000000000000000000000000000000000000000000000000000000000000000 Z
b0000000000000000000000000000000000000000000000000000000000000000 E
b000000 d
b0000000000000000000000000000000000000000000000000000000000000000 =
b00000000 W
b0000000000000000000000000000000000000000000000000000000000000000 \
b000000000000000000000000000000000000000000000000000000000000000000000000000000000000000000000000000000000000000000 q
b0000000000000000000000000000000000000000000000000000000000000000 T
b0000000000000000000000000000000000000000000000000000000000000000 *
b0000000000000000000000000000000000000000000000000000000000000000 ?
b0000000000000000000000000000000000000000000000000000000000000000 "
b0000000000000000000000000000000000000000000000000000000000000000 s
b0000000000000000000000000000000000000000000000000000000000000000 V
b0000000000000000000000000000000000000000000000000000000000000000 A
0^
b0000000000000000000000000000000000000000000000000000000000000000 $
b0000000000000000000000000000000000000000000000000000000000000000 m
b0000000000000000000000000000000000000000000000000000000000000000 X
b0000000000000000000000000000000000000000000000000000000000000000 P
b0000000000000000000000000000000000000000000000000000000000000000 ;
$end
#0
b0000000000000000000000000000000000000000000000000001000000000000 f
b00010 `
b1111111111111111111111111111111111111111111111111100000000000000 4
b010000000000000 C
b1111111111111111111111111111111111111111111111111101001010111111 '
b1111111111111111111111111111111111111111111111111101001010111111 K
b0000000000000000000000000000000000000000000000000001000000000000 i
b0000000000000000000000000000000000000000000000000010110101000001 a
1p
b0000000000000000000000000000000000000000000000000100000000000000 7
b00000001 (
b1111111111111111111111111111111111111111111111111111000000000000 M
b0000000000000000000000000000000000000000000000000100000000000000 N
b1111111111111111111111111111111111111111111111111101001010111111 "
b1111111111111111111111111111111111111111111111111101001010111111 1
b1111111111111111111111111111111111111111111111111100000000000000 F
b0000000000000000000000000000000000000000000000000001000000000000 @
b1111111111111111111111111111111111111111111111111111000000000000 y
b0001 G
b0000000000000000000000000000000000000000000000000010110101000001 ]
b1111111111111111111111111111111111111111111111111101001010111111 ,
b1111111111111111111111111111111111111111111111111101001010111111 P
b0000000000000000000000000000000000000000000000000001000000000000 ;
#1
1Q
#6
1B
0Q
b0000000000000000000000000000000000000000000000000000110011101000 %
b1111111111111111111111111111111111111111111111111111111011010110 g
b0000000000000000000000000000000000000000000000000000110101101011 &
b1111111111111111111111111111111111111111111111111111010110101101 D
b1111111111111111111111111111111111111111111111111111110111111000 S
b0000000000000000000000000000000000000000000000000000010111011101 Z
b0000000000000000000000000000000000000000000000000000001100000101 x
0p
b0000000000000000000000000000000000000000000000000000011101001000 )
b1111111111111111111111111111111111111111111111111111101111001101 \
b1111111111111111111111111111111111111111111111111111100011010011 0
b1111111111111111111111111111111111111111111111111111110001011111 c
b1111111111111111111111111111111111111111111111111111100111100001 8
b0000000000000000000000000000000000000000000000000000011111111111 2
b0000000000000000000000000000000000000000000000000000010101001100 H
b1111111111111111111111111111111111111111111111111111100011011110 m
b0000000000000000000000000000000000000000000000000000100100001110 A
#11
b0000000000000000000000000000000000000000000000000000001100000101 3
b0000000000000000000000000000000000000000000000000001010000111000 f
1Q
b01 <
b0000000000000000000000000000000000000000000000000000001100000101 R
b1111111111111111111111111111111111111111111111111111100011011110 J
b0000000000000000000000000000000000000000000000000000010101001100 5
b1111111111111111111111111111111111111111111111111111100011010011 h
b111111111111111111111111111111111111111111111111111111111111111111111111111111111111111111111111111111100111100001 6
b0000000000000000000000000000000000000000000000000000110011110000 i
b1111111111111111111111111111111111111111111111111111100011010011 L
b0000000000000000000000000000000000000000000000000000110101101011 j
b1111111111111111111111111111111111111111111111111111110111111000 /
b0000000000000000000000000000000000000000000000000000100100001110 b
b1111111111111111111111111111111111111111111111111111100101101110 M
b1111111111111111111111111111111111111111111111111111101001011000 y
b0000000000000000000000000000000000000000000000000000010101001100 e
b1111111111111111111111111111111111111111111111111111110001011111 *
b1111111111111111111111111111111111111111111111111111100111100001 +
b1111111111111111111111111111111111111111111111111111101111001101 I
b0000000000000000000000000000000000000000000000000000011101001000 t
b1111111111111111111111111111111111111111111111111111010110101101 _
b1111111111111111111111111111111111111111111111111111100011011110 -
b0000000000000000000000000000000000000000000000000000010111011101 u
b1111111111111111111111111111111111111111111111111111111011010110 .
b1111111111111111111111111111111111111111111111111111101111001101 v
b111111111111111111111111111111111111111111111111111111111111111111111111111111111111111111111111111111100011011110 w
b0000000000000000000000000000000000000000000000000000011101001000 E
b0000000000000000000000000000000000000000000000000000110101101011 =
b1111111111111111111111111111111111111111111111111111111011010110 [
b0000000000000000000000000000000000000000000000000000110011101000 >
b0000000000000000000000000000000000000000000000000000011111111111 !
b1111111111111111111111111111111111111111111111111111100111100001 T
b1111111111111111111111111111111111111111111111111111110001011111 ?
b0000000000000000000000000000000000000000000000000000110001101111 @
b1111111111111111111111111111111111111111111111111111110111111000 s
b0000000000000000000000000000000000000000000000000000100100001110 #
b0000000000000000000000000000000000000000000000000000110011101000 V
b1111111111111111111111111111111111111111111111111111010110101101 $
b0000000000000000000000000000000000000000000000000000011111111111 O
b0000000000000000000000000000000000000000000000000000010111011101 :
b0000000000000000000000000000000000000000000000000001001001001100 ;
#16
0B
0Q
#21
b0000000000000000000000000000000000000000000000000001001100110010 f
1Q
b1111111111111111111111111111111111111111111111111111100101101110 -
b0000000000000000000000000000000000000000000000000001001001001100 u
b1111111111111111111111111111111111111111111111111111100101101110 J
b00000010 Y
b111111111111111111111111111111111111111111111111111111111111111111111111111111111111111111111111111111100011010011 w
b111111111111111111111111111111111111111111111111111111111111111111111111111111111111111111111111111111101111001101 6
b0000000000000000000000000000000000000000000000000001010000111000 E
b0000000000000000000000000000000000000000000000000000110111100110 i
b00000011 (
b0000000000000000000000000000000000000000000000000000000001111111 M
b1111111111111111111111111111111111111111111111111111101001011000 T
b1111111111111111111111111111111111111111111111111111011101100110 y
b0000000000000000000000000000000000000000000000000000110001101001 @
b001 9
b00000010 W
b1111111111111111111111111111111111111111111111111111101001011000 +
b0000000000000000000000000000000000000000000000000001001001001100 :
b0000000000000000000000000000000000000000000000000001010000111000 t
b0000000000000000000000000000000000000000000000000001100101010001 ;
#26
0Q
#31
b0000000000000000000000000000000000000000000000000001010110001011 f
1Q
b1111111111111111111111111111111111111111111111111111011101100110 v
b00000100 Y
b0000000000000000000000000000000000000000000000000000000001111111 h
b0000000000000000000000000000000000000000000000000001001100110010 5
b111111111111111111111111111111111111111111111111111111111111111111111111111111111111111111111111111111110111111000 w
b000000000000000000000000000000000000000000000000000000000000000000000000000000000000000000000000000000110101101011 6
b0000000000000000000000000000000000000000000000000001011010110101 i
b00000101 (
b0000000000000000000000000000000000000000000000000000000001111111 L
b0000000000000000000000000000000000000000000000000001100101010001 >
b1111111111111111111111111111111111111111111111111111101000010010 M
b1111111111111111111111111111111111111111111111111110100000100001 y
b0000000000000000000000000000000000000000000000000000111011111100 @
b0000000000000000000000000000000000000000000000000001100101010001 V
b0000000000000000000000000000000000000000000000000001001100110010 e
b010 9
b00000100 W
b1111111111111111111111111111111111111111111111111111011101100110 I
b0000000000000000000000000000000000000000000000000001100000001010 ;
#36
0Q
#41
b0000000000000000000000000000000000000000000000000001001011010101 f
1Q
b0000000000000000000000000000000000000000000000000001010110001011 .
b00000110 Y
b000000000000000000000000000000000000000000000000000000000000000000000000000000000000000000000000000000001100000101 w
b111111111111111111111111111111111111111111111111111111111111111111111111111111111111111111111111111111010110101101 6
b0000000000000000000000000000000000000000000000000000101011010110 i
b1111111111111111111111111111111111111111111111111110100000100001 =
b00000111 (
b0000000000000000000000000000000000000000000000000001010110001011 [
b1111111111111111111111111111111111111111111111111110100000100001 j
b1111111111111111111111111111111111111111111111111111101000010010 /
b0000000000000000000000000000000000000000000000000001100000001010 b
b1111111111111111111111111111111111111111111111111110101011011101 M
b1111111111111111111111111111111111111111111111111111110100101001 y
b0000000000000000000000000000000000000000000000000001000110000010 @
b1111111111111111111111111111111111111111111111111111101000010010 s
b0000000000000000000000000000000000000000000000000001100000001010 #
b011 9
b00000110 W
b0000000000000000000000000000000000000000000000000000110111100001 ;
#46
0Q
#51
b1111111111111111111111111111111111111111111111111110101011011101 3
b0000000000000000000000000000000000000000000000000010110111010001 f
1Q
b00100 `
b1111111111111111111111111111111111111111111111111110101011011101 R
b00000000 Y
b000000000000000000000000000000000000000000000000000000000000000000000000000000000000000000000000000001100101010001 w
b000000000000000000000000000000000000000000000000000000000000000000000000000000000000000000000000000001001100110010 6
b0000000000000000000000000000000000000000000000000001100110011001 i
b00000010 (
b1111111111111111111111111111111111111111111111111111010110100100 M
b0000000000000000000000000000000000000000000000000001001011010101 !
b0000000000000000000000000000000000000000000000000000110111100001 ?
b1111111111111111111111111111111111111111111111111111101010011111 y
b0000000000000000000000000000000000000000000000000001110010101000 @
b01 k
b0010 G
b0000000000000000000000000000000000000000000000000000110111100001 *
b000 9
b1111111111111111111111111111111111111111111111111111110100101001 $
b00000000 W
b0000000000000000000000000000000000000000000000000001001011010101 O
b1111111111111111111111111111111111111111111111111111110100101001 _
b0000000000000000000000000000000000000000000000000010111011110100 ;
#56
0Q
#61
b0000000000000000000000000000000000000000000000000000101010010111 f
1Q
b0000000000000000000000000000000000000000000000000010111011110100 u
b1111111111111111111111111111111111111111111111111111101010011111 5
b000000000000000000000000000000000000000000000000000000000000000000000000000000000000000000000000000000000000000000 w
b000000000000000000000000000000000000000000000000000000000000000000000000000000000000000000000000000000000000000000 6
b0000000000000000000000000000000000000000000000000010110111010001 E
b0000000000000000000000000000000000000000000000000001000000111111 i
b00000011 (
b1111111111111111111111111111111111111111111111111111010110100100 >
b000000000000000000000000000000000000000000000000000000000000000000000000000000000000000000000000000000100010011010 q
b1111111111111111111111111111111111111111111111111110010100100001 M
b01 r
b111111111111111111111111111111111111111111111111111111111111111111111111111111111111111111111111111111111110000001 U
b000010 d
b0000000000000000000000000000000000000000000000000001010001001101 @
b1111111111111111111111111111111111111111111111111110101000011001 y
b1111111111111111111111111111111111111111111111111111010110100100 V
b1111111111111111111111111111111111111111111111111111101010011111 e
b00000001 W
b0000000000000000000000000000000000000000000000000010111011110100 :
b0000000000000000000000000000000000000000000000000010110111010001 t
b0000000000000000000000000000000000000000000000000000110110111011 ;
#66
0Q
#71
b0000000000000000000000000000000000000000000000000010111011110101 f
1Q
b0000000000000000000000000000000000000000000000000000110110111011 -
b1111111111111111111111111111111111111111111111111110101000011001 v
b0000000000000000000000000000000000000000000000000000110110111011 J
b00000100 Y
b1111111111111111111111111111111111111111111111111110010100100001 h
b000000000000000000000000000000000000000000000000000000000000000000000000000000000000000000000000000000110111100001 w
b000000000000000000000000000000000000000000000000000000000000000000000000000000000000000000000000000001001011010101 6
b0000000000000000000000000000000000000000000000000001100101101010 i
b00000110 (
b1111111111111111111111111111111111111111111111111110010100100001 L
b000000000000000000000000000000000000000000000000000000000000000000000000000000000000000000000000000000000000000000 q
b0000000000000000000000000000000000000000000000000000000100011010 M
b0000000000000000000000000000000000000000000000000000101010010111 T
b00 r
b000000000000000000000000000000000000000000000000000000000000000000000000000000000000000000000000000000000000000000 U
b000000 d
b0000000000000000000000000000000000000000000000000001011011110000 @
b1111111111111111111111111111111111111111111111111111110000100001 y
b001 9
b00000100 W
b0000000000000000000000000000000000000000000000000000101010010111 +
b1111111111111111111111111111111111111111111111111110101000011001 I
b0000000000000000000000000000000000000000000000000010111011111010 ;
#76
0Q
#81
b1111111111111111111111111111111111111111111111111110110110001111 f
1Q
b0000000000000000000000000000000000000000000000000010111011110101 .
b000000000000000000000000000000000000000000000000000000000000000000000000000000000000000000000000000000000000000000 w
b000000000000000000000000000000000000000000000000000000000000000000000000000000000000000000000000000000000000000000 6
b0000000000000000000000000000000000000000000000000000010101101110 i
b00000111 (
b0000000000000000000000000000000000000000000000000010111011110101 [
b0000000000000000000000000000000000000000000000000010111011111010 b
b000000000000000000000000000000000000000000000000000000000000000000000000000000000000000000000000000000001011010111 q
b1111111111111111111111111111111111111111111111111110100010100111 M
b1111111111111111111111111111111111111111111111111111110000100001 !
b0000000000000000000000000000000000000000000000000000000100011010 ?
b01 r
b000000000000000000000000000000000000000000000000000000000000000000000000000000000000000000000000000001010100100011 U
b000010 d
b0000000000000000000000000000000000000000000000000001000101101011 @
b1111111111111111111111111111111111111111111111111110001010110011 y
b0000000000000000000000000000000000000000000000000010111011111010 #
b0000000000000000000000000000000000000000000000000000000100011010 *
b00000101 W
b1111111111111111111111111111111111111111111111111111110000100001 O
b0000000000000000000000000000000000000000000000000000101101111101 ;
#86
0Q
#91
b1111111111111111111111111111111111111111111111111110100010100111 3
b0000000000000000000000000000000000000000000000000101010101001011 f
1Q
b1111111111111111111111111111111111111111111111111110100010100111 R
b000000000000000000000000000000000000000000000000000000000000000000000000000000000000000000000000000010111011110101 6
b0000000000000000000000000000000000000000000000000010011101111010 i
b1111111111111111111111111111111111111111111111111110110110001111 j
b0000000000000000000000000000000000000000000000000000101101111101 /
b0000000000000000000000000000000000000000000000000000011101110111 M
b0000000000000000000000000000000000000000000000000000011001010111 y
b000000 d
b0100 G
b1111111111111111111111111111111111111111111111111110001010110011 _
b01000 `
b00000000 Y
b000000000000000000000000000000000000000000000000000000000000000000000000000000000000000000000000000010111011111010 w
b1111111111111111111111111111111111111111111111111110110110001111 =
b00000100 (
b000000000000000000000000000000000000000000000000000000000000000000000000000000000000000000000000000000000000000000 q
b00 r
b000000000000000000000000000000000000000000000000000000000000000000000000000000000000000000000000000000000000000000 U
b0000000000000000000000000000000000000000000000000010011101111101 @
b0000000000000000000000000000000000000000000000000000101101111101 s
b10 k
b000 9
b1111111111111111111111111111111111111111111111111110001010110011 $
b00000000 W
b0000000000000000000000000000000000000000000000000101011001110001 ;
#96
0Q
#101
b0000000000000000000000000000000000000000000000000001100000100001 f
1Q
b0000000000000000000000000000000000000000000000000101011001110001 u
b0000000000000000000000000000000000000000000000000000011001010111 .
b000000000000000000000000000000000000000000000000000000000000000000000000000000000000000000000000000000100000011111 w
b111111111111111111111111111111111111111111111111111111111111111111111111111111111111111111111111111111001011110101 6
b0000000000000000000000000000000000000000000000000101010101001011 E
b0000000000000000000000000000000000000000000000000000110110001010 i
b00000101 (
b0000000000000000000000000000000000000000000000000000011001010111 [
b0000000000000000000000000000000000000000000000000000011101110111 b
b000000000000000000000000000000000000000000000000000000000000000000000000000000000000000000000000000000110100001010 q
b1111111111111111111111111111111111111111111111111111001100100111 M
b01 r
b111111111111111111111111111111111111111111111111111111111111111111111111111111111111111111111111111111011111100000 U
b000001 d
b0000000000000000000000000000000000000000000000000001101010010100 @
b1111111111111111111111111111111111111111111111111111110100001101 y
b0000000000000000000000000000000000000000000000000000011101110111 #
b00000001 W
b0000000000000000000000000000000000000000000000000101011001110001 :
b0000000000000000000000000000000000000000000000000101010101001011 t
b0000000000000000000000000000000000000000000000000010100001001111 ;
#106
0Q
#111
b0000000000000000000000000000000000000000000000000000101100101100 f
1Q
b0000000000000000000000000000000000000000000000000010100001001111 -
b0000000000000000000000000000000000000000000000000010100001001111 J
b000000000000000000000000000000000000000000000000000000000000000000000000000000000000000000000000000000000000000000 w
b000000000000000000000000000000000000000000000000000000000000000000000000000000000000000000000000000000000000000000 6
b0000000000000000000000000000000000000000000000000001000010001101 i
b1111111111111111111111111111111111111111111111111111110100001101 =
b00000110 (
b1111111111111111111111111111111111111111111111111111110100001101 j
b1111111111111111111111111111111111111111111111111111001100100111 /
b000000000000000000000000000000000000000000000000000000000000000000000000000000000000000000000000000000001111011111 q
b1111111111111111111111111111111111111111111111111110001110110101 M
b0000000000000000000000000000000000000000000000000001100000100001 T
b10 r
b111111111111111111111111111111111111111111111111111111111111111111111111111111111111111111111111111111111011100110 U
b000010 d
b1111111111111111111111111111111111111111111111111111001100100111 s
b0000000000000000000000000000000000000000000000000001000111101111 @
b1111111111111111111111111111111111111111111111111110101000010010 y
b00000010 W
b0000000000000000000000000000000000000000000000000001100000100001 +
b0000000000000000000000000000000000000000000000000000011110010011 ;
#116
0Q
#121
b1111111111111111111111111111111111111111111111111111110000110011 f
1Q
b0000000000000000000000000000000000000000000000000000101100101100 5
b000000000000000000000000000000000000000000000000000000000000000000000000000000000000000000000000000001000010000010 w
b000000000000000000000000000000000000000000000000000000000000000000000000000000000000000000000000000001010010110111 6
b0000000000000000000000000000000000000000000000000001001000011010 i
b00000111 (
b0000000000000000000000000000000000000000000000000000011110010011 >
b000000000000000000000000000000000000000000000000000000000000000000000000000000000000000000000000000001010010110111 q
b1111111111111111111111111111111111111111111111111100001010000101 M
b1111111111111111111111111111111111111111111111111110101000010010 !
b1111111111111111111111111111111111111111111111111110001110110101 ?
b11 r
b000000000000000000000000000000000000000000000000000000000000000000000000000000000000000000000000000001000010000010 U
b000011 d
b0000000000000000000000000000000000000000000000000010001010011100 @
b1111111111111111111111111111111111111111111111111101011111111111 y
b0000000000000000000000000000000000000000000000000000011110010011 V
b0000000000000000000000000000000000000000000000000000101100101100 e
b1111111111111111111111111111111111111111111111111110001110110101 *
b00000011 W
b1111111111111111111111111111111111111111111111111110101000010010 O
b0000000000000000000000000000000000000000000000000000011110111101 ;
#126
0Q
#131
b1111111111111111111111111111111111111111111111111100001010000101 3
b0000000000000000000000000000000000000000000000001000111111110000 f
1Q
b10000 `
b1111111111111111111111111111111111111111111111111100001010000101 R
b1111111111111111111111111111111111111111111111111111110000110011 v
b0000000000000000000000000000000000000000000000000000011110111101 h
b000000000000000000000000000000000000000000000000000000000000000000000000000000000000000000000000000101011001110001 w
b000000000000000000000000000000000000000000000000000000000000000000000000000000000000000000000000000101010101001011 6
b0000000000000000000000000000000000000000000000000011101010100101 i
b00001000 (
b0000000000000000000000000000000000000000000000000000011110111101 L
b000000000000000000000000000000000000000000000000000000000000000000000000000000000000000000000000000000000000000000 q
b0000000000000000000000000000000000000000000000000001101100111001 M
b00 r
b000000000000000000000000000000000000000000000000000000000000000000000000000000000000000000000000000000000000000000 U
b000000 d
b0000000000000000000000000000000000000000000000000011101100111000 @
b0000000000000000000000000000000000000000000000000001101010100110 y
b11 k
b1000 G
b1111111111111111111111111111111111111111111111111101011111111111 $
b00000000 W
b1111111111111111111111111111111111111111111111111111110000110011 I
b1111111111111111111111111111111111111111111111111101011111111111 _
b0000000000000000000000000000000000000000000000001001000110101001 ;
#136
0Q
#141
1Q
b10 <
1^
